<svg xmlns="http://www.w3.org/2000/svg" xmlns:xlink="http://www.w3.org/1999/xlink" width="111.204" height="165.808" viewBox="0 0 111.204 165.808">
  <defs>
    <clipPath id="clip-path">
      <rect id="Rectangle_48" data-name="Rectangle 48" width="111.204" height="165.807" fill="none"/>
    </clipPath>
  </defs>
  <g id="Group_83" data-name="Group 83" transform="translate(-967.994 -4584)">
    <g id="Group_40" data-name="Group 40" transform="translate(967.994 4584.001)">
      <rect id="Rectangle_47" data-name="Rectangle 47" width="111.204" height="165.808" transform="translate(0 -0.001)" fill="#0e1114"/>
    </g>
    <g id="Group_71" data-name="Group 71" transform="translate(-15887.869 1334.744)">
      <rect id="Rectangle_120" data-name="Rectangle 120" width="80.782" height="8.487" transform="translate(16871.074 3267.778)" fill="#fff"/>
      <rect id="Rectangle_121" data-name="Rectangle 121" width="80.782" height="8.487" transform="translate(16871.074 3388.053)" fill="#fff"/>
      <path id="Path_96" data-name="Path 96" d="M517.05,123.9V44.812c2.869,0,3.868-1.87,3.868-3.991h4.366V123.9Z" transform="translate(16354.024 3249.96)" fill="#fff"/>
      <path id="Path_97" data-name="Path 97" d="M535.666,123.9V44.812c2.869,0,3.868-1.87,3.868-3.991H543.9V123.9Z" transform="translate(16364.512 3249.96)" fill="#fff"/>
      <path id="Path_98" data-name="Path 98" d="M565.633,125.254c-6.862,0-11.351-5.614-11.351-13.348V91.45c0-4.366,1.621-7.235,4.116-8.981-2.495-1.746-4.116-4.617-4.116-8.981V53.529c0-7.609,4.489-13.346,11.351-13.346,6.734,0,11.225,5.738,11.225,13.346V73.487c0,4.365-1.622,7.235-4.115,8.981,2.493,1.746,4.115,4.615,4.115,8.981v20.456c0,7.734-4.491,13.348-11.225,13.348M569,52.905a3.377,3.377,0,1,0-6.736,0V75.732a3.37,3.37,0,0,0,6.736,0Zm0,36.174a3.37,3.37,0,0,0-6.736,0v23.45a3.377,3.377,0,1,0,6.736,0Z" transform="translate(16374.998 3249.6)" fill="#fff"/>
    </g>
  </g>
</svg>
