<svg xmlns="http://www.w3.org/2000/svg" width="1.244in" height="1.188in" viewBox="0 0 89.581 85.51">
  <title>eh_logo</title>
  <g>
    <polygon points="5.408 68.751 5.408 75.298 10.42 75.298 10.42 74.159 6.762 74.159 6.762 72.456 10.019 72.456 10.019 71.313 6.762 71.313 6.762 69.87 10.277 69.87 10.277 68.751 5.408 68.751" fill="#fff"/>
    <path d="M17.846,75.031l-.738-.661a3.746,3.746,0,0,0,.655-2.328c0-3.094-2.25-3.492-3.135-3.492s-3.18.4-3.18,3.492c0,3.072,2.306,3.456,3.18,3.456a3.384,3.384,0,0,0,1.716-.466l.743.768Zm-3.159-1.514.7.643a1.687,1.687,0,0,1-.759.185c-.711,0-1.784-.5-1.784-2.3,0-1.882,1.073-2.313,1.784-2.313.759,0,1.805.431,1.805,2.313a2.538,2.538,0,0,1-.326,1.384l-.711-.608Z" fill="#fff"/>
    <path d="M24.314,73.016c0,1.764-1.044,2.481-2.723,2.481a2.677,2.677,0,0,1-2.083-.8,2.271,2.271,0,0,1-.51-1.6V68.751h1.4v4.265c0,.9.486,1.328,1.161,1.328.969,0,1.332-.5,1.332-1.275V68.751h1.42Z" fill="#fff"/>
    <path d="M26.765,73.959h2.418l.425,1.339H31.12l-2.327-6.547h-1.54L24.9,75.3h1.419ZM27.95,70.2h.068l.775,2.621H27.157Z" fill="#fff"/>
    <polygon points="32.193 68.751 32.193 75.298 36.836 75.298 36.836 74.136 33.567 74.136 33.567 68.751 32.193 68.751" fill="#fff"/>
    <polygon points="44.689 68.751 44.689 71.245 42.079 71.245 42.079 68.751 40.72 68.751 40.72 75.298 42.079 75.298 42.079 72.375 44.689 72.375 44.689 75.298 46.018 75.298 46.018 68.751 44.689 68.751" fill="#fff"/>
    <path d="M47.276,72.042c0,3.072,2.321,3.456,3.176,3.456.9,0,3.163-.384,3.163-3.456,0-3.094-2.261-3.492-3.163-3.492-.854,0-3.176.4-3.176,3.492m1.4,0c0-1.882,1.051-2.313,1.778-2.313s1.818.431,1.818,2.313c0,1.8-1.076,2.3-1.818,2.3s-1.778-.5-1.778-2.3" fill="#fff"/>
    <path d="M60.222,73.016c0,1.764-1.028,2.481-2.689,2.481a2.752,2.752,0,0,1-2.1-.8,2.345,2.345,0,0,1-.536-1.6V68.751H56.28v4.265a1.185,1.185,0,0,0,1.186,1.328c.979,0,1.362-.5,1.362-1.275V68.751h1.394Z" fill="#fff"/>
    <path d="M62.735,73.259c.022.359.21,1.111,1.443,1.111.62,0,1.319-.168,1.319-.868,0-.521-.484-.677-1.134-.851l-.694-.142c-1.1-.238-2.137-.468-2.137-1.917,0-.748.385-2.043,2.549-2.043A2.249,2.249,0,0,1,66.651,70.7H65.309c-.053-.309-.151-.989-1.348-.989-.476,0-1.145.177-1.145.736s.429.661.71.709l1.591.416c.881.2,1.742.593,1.742,1.746,0,1.974-2.046,2.173-2.563,2.173-2.446,0-2.866-1.375-2.866-2.238Z" fill="#fff"/>
    <rect x="67.979" y="68.751" width="1.402" height="6.547" fill="#fff"/>
    <polygon points="74.877 68.751 74.877 73.342 74.827 73.342 72.246 68.751 70.802 68.751 70.802 75.298 72.063 75.298 72.063 70.601 74.801 75.298 76.186 75.298 76.186 68.751 74.877 68.751" fill="#fff"/>
    <path d="M80.778,71.779h2.774V75.3H82.6l-.123-.818A2.414,2.414,0,0,1,80.421,75.5c-1.626,0-3.024-1.127-3.024-3.456,0-1.8,1.009-3.492,3.2-3.492,2.07,0,2.863,1.295,2.932,2.255h-1.4a1.381,1.381,0,0,0-1.43-1.089c-.979,0-1.9.655-1.9,2.326,0,1.8,1,2.3,1.9,2.3a1.636,1.636,0,0,0,1.62-1.452H80.778Z" fill="#fff"/>
    <path d="M5.129,82.013c0,3.137,2.316,3.5,3.181,3.5s3.17-.361,3.17-3.5c0-3.068-2.315-3.475-3.17-3.475s-3.181.407-3.181,3.475m1.4,0c0-1.831,1.052-2.3,1.783-2.3.71,0,1.779.466,1.779,2.3,0,1.886-1.069,2.359-1.779,2.359-.731,0-1.783-.473-1.783-2.359" fill="#fff"/>
    <path d="M15.225,82.982h1.616a2,2,0,0,0,2.1-2.112,1.961,1.961,0,0,0-2.02-2.133h-3v6.612h1.308Zm0-1.144V79.9h1.144c.856,0,1.173.258,1.173.881,0,.335,0,1.057-1,1.057Z" fill="#fff"/>
    <path d="M22.686,82.982h1.558a2.029,2.029,0,0,0,2.12-2.112,1.927,1.927,0,0,0-2.049-2.133H21.307v6.612h1.38Zm0-1.144V79.9H23.78c.837,0,1.232.258,1.232.881,0,.335,0,1.057-1.049,1.057Z" fill="#fff"/>
    <path d="M28.43,82.013c0,3.137,2.316,3.5,3.182,3.5s3.2-.361,3.2-3.5a3.117,3.117,0,0,0-3.2-3.475c-.867,0-3.182.407-3.182,3.475m1.374,0c0-1.831,1.049-2.3,1.808-2.3.726,0,1.748.466,1.748,2.3,0,1.886-1.022,2.359-1.748,2.359-.759,0-1.808-.473-1.808-2.359" fill="#fff"/>
    <path d="M37.137,85.348h1.389V82.76h1.42c.968,0,1.06.3,1.06,1.247a3.526,3.526,0,0,0,.19,1.34h1.49v-.175c-.3-.1-.3-.355-.3-1.318,0-1.249-.306-1.454-.8-1.678a1.6,1.6,0,0,0,.989-1.562,1.875,1.875,0,0,0-2.072-1.886H37.137Zm1.389-3.673V79.9h1.688c.864,0,1,.53,1,.865,0,.643-.384.91-1.1.91Z" fill="#fff"/>
    <polygon points="44.364 78.736 44.364 79.9 46.315 79.9 46.315 85.348 47.746 85.348 47.746 79.9 49.724 79.9 49.724 78.736 44.364 78.736" fill="#fff"/>
    <path d="M57.139,83.027c0,1.746-1.069,2.483-2.747,2.483a3.015,3.015,0,0,1-2.078-.777,2.6,2.6,0,0,1-.517-1.6v-4.4h1.427v4.291c0,.921.509,1.345,1.167,1.345.956,0,1.321-.473,1.321-1.31V78.736h1.426Z" fill="#fff"/>
    <polygon points="63.812 78.736 63.812 83.341 63.78 83.341 61.171 78.736 59.702 78.736 59.702 85.348 60.981 85.348 60.981 80.648 63.713 85.348 65.116 85.348 65.116 78.736 63.812 78.736" fill="#fff"/>
    <rect x="67.597" y="78.736" width="1.364" height="6.612" fill="#fff"/>
    <polygon points="71.034 78.736 71.034 79.9 73.015 79.9 73.015 85.348 74.369 85.348 74.369 79.9 76.386 79.9 76.386 78.736 71.034 78.736" fill="#fff"/>
    <polygon points="81.598 85.348 80.19 85.348 80.19 82.881 77.924 78.736 79.544 78.736 80.92 81.626 82.202 78.736 83.78 78.736 81.598 82.881 81.598 85.348" fill="#fff"/>
    <path d="M73.993,53.7h-59.4V25.514l29.862-15.25,29.536,15.25ZM44.457,0,0,21.891V32.179H4.967V62.986H83.6V32.179h5.98V21.891Z" fill="#fff"/>
    <rect x="30.502" y="25.514" width="27.523" height="9.955" fill="#fff"/>
    <rect x="30.502" y="39.801" width="27.523" height="9.936" fill="#fff"/>
  </g>
</svg>
